{
	"id": "d8efe37e-2de0-4e04-a4e4-2d7de279aff8",
	"name": "localhost:8080",
	"values": [
		{
			"key": "host",
			"value": "http://localhost:8080",
			"type": "default",
			"enabled": true
		}
	],
	"_postman_variable_scope": "environment",
	"_postman_exported_at": "2023-07-14T03:14:42.700Z",
	"_postman_exported_using": "Postman/10.15.8"
}